year,month,day,temp_max,temp_min,precipitation_inches
2015,1,1,46,30,0.00
2015,1,2,50,26,0.00
2015,1,3,51,37,0.00
2015,1,4,55,33,0.00
2015,1,5,57,35,0.00
2015,1,6,64,35,0.00
2015,1,7,66,37,0.00
2015,1,8,59,42,0.00
2015,1,9,57,44,0.00
2015,1,10,53,44,0.00
2015,1,11,59,39,0.00
2015,1,12,62,39,0.00
2015,1,13,64,37,0.00
2015,1,14,57,35,0.00
2015,1,15,55,35,0.00
2015,1,16,50,46,0.01
2015,1,17,57,46,0.00
2015,1,18,55,48,0.00
2015,1,19,62,46,0.00
2015,1,20,53,41,0.00
2015,1,21,60,35,0.00
2015,1,22,57,41,0.00
2015,1,23,69,37,0.00
2015,1,24,75,41,0.00
2015,1,25,60,39,0.00
2015,1,26,62,39,0.00
2015,1,27,59,48,0.00
2015,1,28,68,41,0.00
2015,1,29,68,39,0.00
2015,1,30,71,41,0.00
2015,1,31,71,41,0.00
2015,2,1,62,44,0.00
2015,2,2,59,44,0.00
2015,2,3,64,44,0.00
2015,2,4,64,42,0.00
2015,2,5,57,48,0.00
2015,2,6,62,51,0.60
2015,2,7,64,55,0.05
2015,2,8,59,57,0.04
2015,2,9,62,50,0.00
2015,2,10,60,41,0.00
2015,2,11,64,41,0.00
2015,2,12,68,42,0.00
2015,2,13,68,48,0.00
2015,2,14,71,46,0.00
2015,2,15,71,44,0.00
2015,2,16,71,44,0.00
2015,2,17,68,44,0.00
2015,2,18,62,46,0.00
2015,2,19,62,44,0.00
2015,2,20,71,50,0.00
2015,2,21,59,41,0.00
2015,2,22,66,41,0.00
2015,2,23,64,37,0.00
2015,2,24,68,35,0.00
2015,2,25,66,37,0.00
2015,2,26,71,42,0.00
2015,2,27,64,44,0.00
2015,2,28,59,42,0.00
2015,3,1,64,37,0.00
2015,3,2,59,41,0.00
2015,3,3,64,37,0.00
2015,3,4,66,35,0.00
2015,3,5,68,37,0.00
2015,3,6,77,37,0.00
2015,3,7,73,44,0.00
2015,3,8,75,42,0.00
2015,3,9,80,41,0.00
2015,3,10,71,46,0.00
2015,3,11,62,53,0.00
2015,3,12,75,44,0.00
2015,3,13,75,50,0.00
2015,3,14,77,59,0.00
2015,3,15,73,57,0.00
2015,3,16,62,53,0.00
2015,3,17,73,46,0.00
2015,3,18,78,46,0.00
2015,3,19,78,44,0.00
2015,3,20,73,48,0.00
2015,3,21,73,50,0.00
2015,3,22,69,55,0.05
2015,3,23,66,51,0.00
2015,3,24,66,50,0.02
2015,3,25,80,44,0.00
2015,3,26,82,53,0.00
2015,3,27,84,50,0.00
2015,3,28,80,53,0.00
2015,3,29,84,46,0.00
2015,3,30,82,50,0.00
2015,3,31,71,51,0.00
2015,4,1,69,42,0.00
2015,4,2,71,44,0.00
2015,4,3,73,39,0.00
2015,4,4,68,50,0.00
2015,4,5,55,44,0.00
2015,4,6,60,44,0.00
2015,4,7,55,44,0.36
2015,4,8,59,46,0.00
2015,4,9,68,39,0.00
2015,4,10,73,42,0.00
2015,4,11,73,48,0.00
2015,4,12,80,46,0.00
2015,4,13,80,48,0.00
2015,4,14,66,44,0.00
2015,4,15,75,41,0.00
2015,4,16,82,44,0.00
2015,4,17,82,48,0.00
2015,4,18,82,50,0.00
2015,4,19,89,53,0.00
2015,4,20,84,57,0.00
2015,4,21,77,55,0.00
2015,4,22,80,53,0.00
2015,4,23,77,55,0.08
2015,4,24,69,50,0.15
2015,4,25,71,50,0.20
2015,4,26,78,48,0.00
2015,4,27,87,51,1.00
2015,4,28,86,57,0.00
2015,4,29,82,57,0.00
2015,4,30,89,57,0.00
2015,5,1,89,57,0.00
2015,5,2,87,59,0.00
2015,5,3,84,59,0.00
2015,5,4,80,53,0.00
2015,5,5,77,53,0.00
2015,5,6,80,55,0.00
2015,5,7,77,55,0.00
2015,5,8,75,48,0.00
2015,5,9,78,53,0.00
2015,5,10,80,57,0.00
2015,5,11,75,55,0.00
2015,5,12,68,53,0.00
2015,5,13,71,53,0.00
2015,5,14,69,50,0.00
2015,5,15,71,53,0.00
2015,5,16,75,55,0.00
2015,5,17,71,55,0.00
2015,5,18,75,53,0.00
2015,5,19,75,53,0.00
2015,5,20,77,55,0.00
2015,5,21,75,53,0.00
2015,5,22,75,57,0.00
2015,5,23,75,57,0.01
2015,5,24,84,57,0.00
2015,5,25,84,55,0.00
2015,5,26,82,55,0.00
2015,5,27,84,57,0.00
2015,5,28,87,60,0.00
2015,5,29,89,62,0.00
2015,5,30,89,62,0.00
2015,5,31,86,62,0.00
2015,6,1,78,55,0.00
2015,6,2,82,60,0.00
2015,6,3,82,62,0.00
2015,6,4,82,59,0.00
2015,6,5,95,62,0.02
2015,6,6,95,64,0.00
2015,6,7,100,68,0.00
2015,6,8,100,71,0.00
2015,6,9,98,75,0.00
2015,6,10,84,71,0.00
2015,6,11,102,66,0.00
2015,6,12,107,71,0.00
2015,6,13,96,73,0.00
2015,6,14,91,66,0.00
2015,6,15,89,62,0.00
2015,6,16,95,64,0.00
2015,6,17,98,66,0.00
2015,6,18,93,66,0.00
2015,6,19,91,64,0.00
2015,6,20,95,66,0.00
2015,6,21,89,66,0.00
2015,6,22,89,59,0.00
2015,6,23,95,64,0.00
2015,6,24,93,68,0.00
2015,6,25,98,68,0.00
2015,6,26,102,73,0.00
2015,6,27,95,73,0.00
2015,6,28,96,73,0.00
2015,6,29,98,68,0.00
2015,6,30,107,69,0.00
2015,7,1,102,77,0.00
2015,7,2,100,77,0.00
2015,7,3,95,75,0.00
2015,7,4,98,75,0.00
2015,7,5,95,71,0.00
2015,7,6,89,66,0.00
2015,7,7,89,66,0.00
2015,7,8,84,64,0.00
2015,7,9,77,64,0.00
2015,7,10,80,62,0.00
2015,7,11,87,64,0.00
2015,7,12,86,64,0.00
2015,7,13,89,66,0.00
2015,7,14,91,66,0.00
2015,7,15,95,66,0.00
2015,7,16,95,71,0.00
2015,7,17,98,71,0.00
2015,7,18,93,68,0.00
2015,7,19,95,68,0.00
2015,7,20,100,73,0.00
2015,7,21,96,75,0.00
2015,7,22,91,66,0.00
2015,7,23,84,59,0.00
2015,7,24,89,62,0.00
2015,7,25,91,62,0.00
2015,7,26,91,64,0.00
2015,7,27,96,68,0.00
2015,7,28,102,69,0.00
2015,7,29,105,69,0.00
2015,7,30,100,73,0.00
2015,7,31,95,75,0.00
2015,8,1,91,66,0.00
2015,8,2,89,68,0.00
2015,8,3,91,64,0.00
2015,8,4,77,62,0.00
2015,8,5,87,62,0.00
2015,8,6,93,68,0.00
2015,8,7,93,68,0.00
2015,8,8,91,64,0.00
2015,8,9,93,64,0.00
2015,8,10,87,69,0.00
2015,8,11,89,64,0.00
2015,8,12,89,64,0.00
2015,8,13,91,66,0.00
2015,8,14,87,64,0.00
2015,8,15,98,64,0.00
2015,8,16,100,64,0.00
2015,8,17,102,66,0.00
2015,8,18,98,69,0.00
2015,8,19,91,66,0.00
2015,8,20,87,62,0.00
2015,8,21,89,62,0.00
2015,8,22,91,64,0.00
2015,8,23,91,64,0.00
2015,8,24,95,66,0.00
2015,8,25,96,66,0.00
2015,8,26,95,66,0.00
2015,8,27,98,69,0.00
2015,8,28,96,69,0.00
2015,8,29,86,71,0.00
2015,8,30,86,64,0.00
2015,8,31,87,59,0.00
2015,9,1,91,87,0.00
2015,9,2,86,64,0.00
2015,9,3,80,62,0.00
2015,9,4,80,57,0.00
2015,9,5,82,55,0.00
2015,9,6,87,57,0.00
2015,9,7,93,55,0.00
2015,9,8,96,59,0.00
2015,9,9,102,60,0.00
2015,9,10,104,64,0.00
2015,9,11,100,71,0.00
2015,9,12,91,68,0.00
2015,9,13,86,71,0.00
2015,9,14,84,68,0.00
2015,9,15,71,62,0.00
2015,9,16,66,59,0.00
2015,9,17,77,55,0.00
2015,9,18,84,53,0.00
2015,9,19,91,55,0.00
2015,9,20,95,66,0.00
2015,9,21,96,64,0.00
2015,9,22,89,64,0.00
2015,9,23,86,55,0.00
2015,9,24,91,62,0.00
2015,9,25,95,57,0.00
2015,9,26,91,64,0.00
2015,9,27,91,60,0.00
2015,9,28,89,59,0.00
2015,9,29,84,59,0.00
2015,9,30,71,53,0.00
2015,10,1,71,60,0.00
2015,10,2,91,53,0.00
2015,10,3,80,55,0.00
2015,10,4,87,62,0.00
2015,10,5,78,59,0.00
2015,10,6,80,60,0.00
2015,10,7,82,57,0.00
2015,10,8,84,64,0.00
2015,10,9,89,55,0.00
2015,10,10,89,62,0.00
2015,10,11,89,57,0.00
2015,10,12,89,57,0.00
2015,10,13,93,57,0.00
2015,10,14,91,59,0.00
2015,10,15,86,66,0.00
2015,10,16,84,62,0.00
2015,10,17,71,62,0.00
2015,10,18,71,59,0.00
2015,10,19,71,55,0.00
2015,10,20,82,55,0.00
2015,10,21,82,55,0.00
2015,10,22,82,57,0.00
2015,10,23,78,51,0.00
2015,10,24,77,55,0.00
2015,10,25,80,71,0.00
2015,10,26,77,53,0.00
2015,10,27,73,57,0.00
2015,10,28,71,55,0.00
2015,10,29,77,48,0.00
2015,10,30,86,46,0.00
2015,10,31,80,51,0.00
2015,11,1,68,59,0.00
2015,11,2,59,48,0.00
2015,11,3,64,44,0.00
2015,11,4,62,41,0.00
2015,11,5,59,39,0.00
2015,11,6,69,37,0.00
2015,11,7,66,41,0.00
2015,11,8,53,48,0.00
2015,11,9,51,46,0.00
2015,11,10,57,37,0.00
2015,11,11,57,37,0.00
2015,11,12,64,37,0.00
2015,11,13,64,41,0.00
2015,11,14,64,41,0.00
2015,11,15,55,48,0.00
2015,11,16,57,35,0.00
2015,11,17,57,39,0.00
2015,11,18,62,41,0.00
2015,11,19,64,41,0.00
2015,11,20,73,41,0.00
2015,11,21,69,46,0.00
2015,11,22,66,41,0.00
2015,11,23,64,41,0.00
2015,11,24,55,39,0.00
2015,11,25,51,32,0.00
2015,11,26,53,32,0.00
2015,11,27,55,33,0.00
2015,11,28,53,28,0.00
2015,11,29,53,24,0.00
2015,11,30,48,26,0.00
2015,12,1,55,32,0.00
2015,12,2,57,44,0.00
2015,12,3,53,46,0.00
2015,12,4,57,39,0.00
2015,12,5,50,35,0.00
2015,12,6,53,48,0.22
2015,12,7,57,48,0.01
2015,12,8,55,48,0.00
2015,12,9,59,50,0.00
2015,12,10,59,48,0.25
2015,12,11,53,46,0.00
2015,12,12,51,37,0.00
2015,12,13,53,39,0.00
2015,12,14,53,33,0.00
2015,12,15,53,32,0.00
2015,12,16,50,32,0.00
2015,12,17,50,41,0.00
2015,12,18,50,46,0.45
2015,12,19,50,37,0.00
2015,12,20,44,35,0.01
2015,12,21,50,44,0.11
2015,12,22,59,48,0.01
2015,12,23,53,37,0.00
2015,12,24,50,35,0.02
2015,12,25,48,33,0.00
2015,12,26,50,28,0.00
2015,12,27,44,32,0.00
2015,12,28,48,33,0.00
2015,12,29,50,30,0.00
2015,12,30,48,32,0.00
2015,12,31,51,28,0.00
2016,1,1,46,26,0.00
2016,1,2,44,32,0.00
2016,1,3,50,33,0.00
2016,1,4,46,37,0.07
2016,1,5,50,46,0.66
2016,1,6,50,44,0.06
2016,1,7,50,42,0.04
2016,1,8,50,33,0.00
2016,1,9,50,44,0.09
2016,1,10,55,39,0.00
2016,1,11,53,41,0.00
2016,1,12,55,39,0.01
2016,1,13,59,44,0.40
2016,1,14,46,37,0.04
2016,1,15,51,44,0.03
2016,1,16,55,46,0.10
2016,1,17,55,50,0.42
2016,1,18,59,50,0.32
2016,1,19,57,50,0.04
2016,1,20,57,48,0.00
2016,1,21,57,46,0.06
2016,1,22,57,51,0.29
2016,1,23,66,46,0.11
2016,1,24,53,46,0.04
2016,1,25,59,42,0.00
2016,1,26,57,37,0.00
2016,1,27,62,39,0.00
2016,1,28,53,44,0.00
2016,1,29,55,48,0.19
2016,1,30,55,44,0.01
2016,1,31,55,37,0.00
2016,2,1,53,35,0.00
2016,2,2,46,37,0.00
2016,2,3,48,35,0.00
2016,2,4,57,39,0.00
2016,2,5,59,37,0.00
2016,2,6,62,39,0.00
2016,2,7,75,41,0.00
2016,2,8,77,46,0.00
2016,2,9,69,44,0.00
2016,2,10,68,41,0.00
2016,2,11,69,46,0.00
2016,2,12,68,44,0.00
2016,2,13,69,42,0.00
2016,2,14,73,53,0.00
2016,2,15,75,50,0.00
2016,2,16,71,46,0.00
2016,2,17,64,46,0.43
2016,2,18,57,46,0.04
2016,2,19,53,46,0.00
2016,2,20,59,37,0.00
2016,2,21,62,37,0.00
2016,2,22,66,37,0.00
2016,2,23,66,39,0.00
2016,2,24,68,44,0.00
2016,2,25,69,41,0.00
2016,2,26,68,46,0.00
2016,2,27,60,48,0.00
2016,2,28,62,41,0.00
2016,2,29,66,39,0.00
2016,3,1,69,46,0.00
2016,3,2,69,46,0.00
2016,3,3,62,53,0.00
2016,3,4,62,53,0.00
2016,3,5,60,53,1.14
2016,3,6,57,46,0.56
2016,3,7,57,44,0.63
2016,3,8,53,39,0.00
2016,3,9,60,48,0.02
2016,3,10,60,53,0.15
2016,3,11,55,48,0.17
2016,3,12,51,48,0.03
2016,3,13,55,50,0.22
2016,3,14,60,46,0.00
2016,3,15,64,39,0.00
2016,3,16,73,44,0.00
2016,3,17,75,46,0.00
2016,3,18,73,48,0.00
2016,3,19,71,51,0.00
2016,3,20,62,55,0.00
2016,3,21,57,48,0.09
2016,3,22,60,44,0.00
2016,3,23,66,37,0.00
2016,3,24,69,44,0.00
2016,3,25,73,46,0.00
2016,3,26,71,44,0.00
2016,3,27,66,51,0.00
2016,3,28,62,44,0.00
2016,3,29,66,41,0.00
2016,3,30,71,41,0.00
2016,3,31,73,46,0.00
2016,4,1,71,50,0.00
2016,4,2,75,50,0.00
2016,4,3,78,53,0.00
2016,4,4,77,51,0.00
2016,4,5,82,50,0.00
2016,4,6,89,53,0.00
2016,4,7,82,55,0.00
2016,4,8,77,53,0.00
2016,4,9,66,57,0.02
2016,4,10,66,55,0.03
2016,4,11,73,57,0.00
2016,4,12,71,57,0.00
2016,4,13,71,53,0.00
2016,4,14,64,46,0.04
2016,4,15,73,41,0.00
2016,4,16,84,44,0.00
2016,4,17,84,48,0.00
2016,4,18,86,53,0.00
2016,4,19,86,55,0.00
2016,4,20,82,59,0.00
2016,4,21,75,55,0.00
2016,4,22,64,50,0.23
2016,4,23,66,50,0.00
2016,4,24,71,50,0.00
2016,4,25,69,44,0.00
2016,4,26,71,44,0.00
2016,4,27,68,51,0.00
2016,4,28,78,50,0.00
2016,4,29,77,55,0.00
2016,4,30,82,51,0.00
2016,5,1,82,53,0.00
2016,5,2,82,57,0.00
2016,5,3,82,57,0.00
2016,5,4,80,59,0.00
2016,5,5,68,55,0.27
2016,5,6,66,55,0.01
2016,5,7,62,57,0.09
2016,5,8,71,57,0.01
2016,5,9,77,59,0.00
2016,5,10,86,57,0.00
2016,5,11,87,55,0.00
2016,5,12,91,55,0.00
2016,5,13,86,62,0.00
2016,5,14,77,53,0.00
2016,5,15,82,57,0.00
2016,5,16,86,57,0.00
2016,5,17,89,59,0.00
2016,5,18,93,62,0.00
2016,5,19,80,55,0.02
2016,5,20,62,53,0.02
2016,5,21,66,53,0.00
2016,5,22,71,50,0.00
2016,5,23,73,53,0.00
2016,5,24,75,59,0.00
2016,5,25,80,57,0.00
2016,5,26,84,59,0.00
2016,5,27,87,59,0.00
2016,5,28,87,60,0.00
2016,5,29,89,59,0.00
2016,5,30,95,62,0.00
2016,5,31,100,64,0.00
2016,6,1,98,66,0.00
2016,6,2,95,66,0.00
2016,6,3,102,62,0.00
2016,6,4,95,68,0.00
2016,6,5,96,71,0.00
2016,6,6,96,71,0.00
2016,6,7,91,68,0.00
2016,6,8,86,62,0.00
2016,6,9,84,60,0.00
2016,6,10,82,62,0.00
2016,6,11,91,60,0.00
2016,6,12,91,64,0.00
2016,6,13,82,64,0.00
2016,6,14,75,59,0.00
2016,6,15,68,55,0.00
2016,6,16,73,55,0.00
2016,6,17,71,57,0.05
2016,6,18,80,55,0.27
2016,6,19,86,55,0.00
2016,6,20,93,57,0.00
2016,6,21,96,66,0.00
2016,6,22,93,66,0.00
2016,6,23,91,64,0.00
2016,6,24,93,62,0.00
2016,6,25,98,64,0.00
2016,6,26,98,66,0.00
2016,6,27,102,71,0.00
2016,6,28,104,69,0.00
2016,6,29,100,71,0.00
2016,6,30,102,71,0.00
2016,7,1,98,75,0.00
2016,7,2,95,71,0.00
2016,7,3,93,68,0.00
2016,7,4,91,68,0.00
2016,7,5,89,66,0.00
2016,7,6,87,62,0.00
2016,7,7,87,64,0.00
2016,7,8,86,62,0.00
2016,7,9,86,68,0.00
2016,7,10,84,59,0.00
2016,7,11,89,62,0.00
2016,7,12,89,64,0.00
2016,7,13,98,62,0.00
2016,7,14,98,66,0.00
2016,7,15,98,71,0.00
2016,7,16,91,68,0.00
2016,7,17,86,66,0.00
2016,7,18,84,62,0.00
2016,7,19,87,62,0.00
2016,7,20,91,62,0.00
2016,7,21,93,66,0.00
2016,7,22,93,62,0.00
2016,7,23,102,64,0.00
2016,7,24,100,71,0.00
2016,7,25,98,71,0.00
2016,7,26,104,68,0.00
2016,7,27,104,69,0.00
2016,7,28,102,73,0.00
2016,7,29,104,75,0.00
2016,7,30,102,77,0.00
2016,7,31,95,68,0.00
2016,8,1,93,66,0.00
2016,8,2,95,64,0.00
2016,8,3,100,68,0.00
2016,8,4,89,68,0.00
2016,8,5,86,57,0.00
2016,8,6,91,64,0.00
2016,8,7,91,60,0.00
2016,8,8,93,66,0.00
2016,8,9,95,66,0.00
2016,8,10,91,66,0.00
2016,8,11,95,68,0.00
2016,8,12,98,69,0.00
2016,8,13,100,68,0.00
2016,8,14,102,69,0.00
2016,8,15,95,68,0.00
2016,8,16,95,68,0.00
2016,8,17,98,71,0.00
2016,8,18,96,73,0.00
2016,8,19,93,71,0.00
2016,8,20,95,71,0.00
2016,8,21,91,66,0.00
2016,8,22,93,64,0.00
2016,8,23,89,64,0.00
2016,8,24,91,64,0.00
2016,8,25,93,66,0.00
2016,8,26,89,62,0.00
2016,8,27,86,59,0.00
2016,8,28,89,59,0.00
2016,8,29,86,62,0.00
2016,8,30,89,60,0.00
2016,8,31,89,66,0.00
2016,9,1,89,60,0.00
2016,9,2,89,62,0.00
2016,9,3,84,53,0.00
2016,9,4,78,57,0.00
2016,9,5,89,55,0.00
2016,9,6,89,57,0.00
2016,9,7,95,62,0.00
2016,9,8,93,64,0.00
2016,9,9,95,64,0.00
2016,9,10,93,66,0.00
2016,9,11,86,64,0.00
2016,9,12,77,55,0.00
2016,9,13,73,53,0.00
2016,9,14,80,53,0.00
2016,9,15,84,55,0.00
2016,9,16,93,55,0.00
2016,9,17,91,59,0.00
2016,9,18,95,60,0.00
2016,9,19,95,68,0.00
2016,9,20,91,71,0.00
2016,9,21,78,64,0.00
2016,9,22,77,53,0.00
2016,9,23,82,50,0.00
2016,9,24,93,59,0.00
2016,9,25,100,62,0.00
2016,9,26,95,62,0.00
2016,9,27,93,60,0.00
2016,9,28,93,62,0.00
2016,9,29,86,62,0.00
2016,9,30,80,59,0.00
2016,10,1,75,50,0.00
2016,10,2,66,48,0.04
2016,10,3,60,46,0.00
2016,10,4,69,48,0.00
2016,10,5,73,50,0.00
2016,10,6,77,50,0.00
2016,10,7,84,50,0.00
2016,10,8,84,53,0.00
2016,10,9,86,55,0.00
2016,10,10,82,59,0.00
2016,10,11,77,53,0.00
2016,10,12,75,53,0.00
2016,10,13,73,59,0.00
2016,10,14,66,59,0.00
2016,10,15,62,59,0.00
2016,10,16,64,55,0.00
2016,10,17,66,55,0.00
2016,10,18,68,50,0.00
2016,10,19,75,46,0.00
2016,10,20,77,48,0.00
2016,10,21,77,51,0.00
2016,10,22,71,50,0.00
2016,10,23,73,48,0.00
2016,10,24,64,55,0.00
2016,10,25,66,57,0.00
2016,10,26,73,59,0.00
2016,10,27,66,57,0.00
2016,10,28,62,55,0.00
2016,10,29,68,59,0.00
2016,10,30,60,55,0.00
2016,10,31,59,50,0.01
2016,11,1,60,48,0.00
2016,11,2,66,41,0.00
2016,11,3,66,42,0.00
2016,11,4,71,44,0.00
2016,11,5,69,44,0.00
2016,11,6,66,59,0.00
2016,11,7,68,51,0.00
2016,11,8,73,50,0.00
2016,11,9,73,48,0.00
2016,11,10,73,48,0.00
2016,11,11,71,48,0.00
2016,11,12,68,53,0.00
2016,11,13,71,50,0.00
2016,11,14,71,48,0.00
2016,11,15,62,48,0.00
2016,11,16,57,39,0.00
2016,11,17,59,33,0.00
2016,11,18,59,37,0.00
2016,11,19,59,48,0.17
2016,11,20,55,51,0.01
2016,11,21,59,48,0.00
2016,11,22,55,41,0.20
2016,11,23,57,39,0.00
2016,11,24,53,33,0.00
2016,11,25,50,41,0.00
2016,11,26,48,39,0.04
2016,11,27,53,39,0.05
2016,11,28,53,39,0.00
2016,11,29,57,37,0.00
2016,11,30,55,39,0.00
2016,12,1,57,37,0.00
2016,12,2,57,35,0.00
2016,12,3,57,35,0.00
2016,12,4,51,37,0.00
2016,12,5,50,32,0.00
2016,12,6,53,28,0.00
2016,12,7,44,28,0.25
2016,12,8,41,35,0.22
2016,12,9,55,41,0.54
2016,12,10,57,44,0.27
2016,12,11,50,41,0.00
2016,12,12,53,37,0.00
2016,12,13,48,41,0.12
2016,12,14,57,44,0.35
2016,12,15,55,53,0.48
2016,12,16,55,33,0.00
2016,12,17,48,28,0.00
2016,12,18,50,26,0.00
2016,12,19,48,28,0.00
2016,12,20,55,32,0.00
2016,12,21,64,37,0.00
2016,12,22,57,32,0.00
2016,12,23,51,39,0.17
2016,12,24,50,32,0.00
2016,12,25,42,28,0.00
2016,12,26,48,24,0.00
2016,12,27,53,32,0.00
2016,12,28,59,30,0.00
2016,12,29,57,32,0.00
2016,12,30,57,32,0.00
2016,12,31,57,41,0.00
2017,1,1,44,39,0.00
2017,1,2,48,37,0.00
2017,1,3,50,42,0.49
2017,1,4,50,41,0.02
2017,1,5,46,28,0.00
2017,1,6,44,24,0.00
2017,1,7,46,35,0.14
2017,1,8,59,39,0.37
2017,1,9,55,48,0.04
2017,1,10,53,50,0.10
2017,1,11,55,48,0.00
2017,1,12,48,37,0.02
2017,1,13,57,32,0.00
2017,1,14,55,35,0.00
2017,1,15,48,35,0.00
2017,1,16,48,28,0.00
2017,1,17,46,30,0.00
2017,1,18,48,42,0.38
2017,1,19,53,46,0.02
2017,1,20,48,42,0.34
2017,1,21,51,44,0.32
2017,1,22,51,42,0.32
2017,1,23,50,41,0.00
2017,1,24,51,35,0.05
2017,1,25,48,35,0.00
2017,1,26,55,33,0.00
2017,1,27,59,32,0.00
2017,1,28,57,32,0.00
2017,1,29,57,32,0.00
2017,1,30,60,33,0.00
2017,1,31,53,35,0.00
2017,2,1,53,35,0.00
2017,2,2,57,44,0.27
2017,2,3,57,53,0.35
2017,2,4,57,53,0.00
2017,2,5,59,50,0.12
2017,2,6,57,51,0.18
2017,2,7,60,50,0.53
2017,2,8,62,57,0.01
2017,2,9,62,55,0.00
2017,2,10,60,48,0.01
2017,2,11,62,41,0.01
2017,2,12,66,37,0.00
2017,2,13,59,42,0.00
2017,2,14,64,37,0.00
2017,2,15,60,46,0.00
2017,2,16,62,51,0.06
2017,2,17,53,48,0.63
2017,2,18,57,50,0.29
2017,2,19,51,46,0.08
2017,2,20,55,50,0.24
2017,2,21,57,48,0.00
2017,2,22,53,37,0.00
2017,2,23,51,32,0.00
2017,2,24,51,32,0.00
2017,2,25,53,39,0.00
2017,2,26,55,32,0.00
2017,2,27,53,37,0.00
2017,2,28,57,35,0.00
2017,3,1,64,32,0.00
2017,3,2,64,37,0.00
2017,3,3,62,39,0.00
2017,3,4,57,46,0.12
2017,3,5,50,41,0.00
2017,3,6,51,41,0.00
2017,3,7,57,44,0.00
2017,3,8,68,44,0.00
2017,3,9,71,44,0.00
2017,3,10,73,51,0.00
2017,3,11,73,46,0.00
2017,3,12,75,44,0.00
2017,3,13,75,46,0.00
2017,3,14,77,44,0.00
2017,3,15,71,50,0.00
2017,3,16,66,53,0.00
2017,3,17,75,46,0.00
2017,3,18,68,57,0.00
2017,3,19,68,53,0.00
2017,3,20,62,53,0.22
2017,3,21,66,53,0.56
2017,3,22,57,44,0.27
2017,3,23,60,37,0.00
2017,3,24,55,48,0.10
2017,3,25,64,48,0.00
2017,3,26,57,48,0.02
2017,3,27,62,41,0.00
2017,3,28,71,44,0.00
2017,3,29,69,46,0.00
2017,3,30,64,48,0.04
2017,3,31,71,44,0.00
2017,4,1,80,46,0.00
2017,4,2,78,51,0.00
2017,4,3,71,46,0.00
2017,4,4,73,50,0.00
2017,4,5,73,51,0.00
2017,4,6,66,50,0.95
2017,4,7,57,50,0.25
2017,4,8,53,44,0.00
2017,4,9,60,37,0.00
2017,4,10,64,48,0.00
2017,4,11,59,50,0.00
2017,4,12,59,51,0.25
2017,4,13,57,46,0.13
2017,4,14,62,37,0.00
2017,4,15,66,39,0.00
2017,4,16,59,44,0.14
2017,4,17,59,51,0.02
2017,4,18,68,53,0.00
2017,4,19,66,50,0.07
2017,4,20,68,51,0.00
2017,4,21,77,46,0.00
2017,4,22,71,55,0.00
2017,4,23,71,53,0.00
2017,4,24,66,51,0.04
2017,4,25,68,50,0.00
2017,4,26,66,57,0.02
2017,4,27,73,50,0.00
2017,4,28,73,44,0.00
2017,4,29,78,42,0.00
2017,4,30,84,50,0.00
2017,5,1,89,50,0.00
2017,5,2,89,59,0.00
2017,5,3,93,62,0.00
2017,5,4,91,62,0.00
2017,5,5,82,57,0.00
2017,5,6,71,53,0.00
2017,5,7,80,55,0.00
2017,5,8,86,53,0.00
2017,5,9,93,55,0.00
2017,5,10,80,59,0.00
2017,5,11,75,53,0.00
2017,5,12,69,50,0.00
2017,5,13,68,44,0.00
2017,5,14,73,46,0.00
2017,5,15,78,50,0.00
2017,5,16,64,53,0.00
2017,5,17,77,48,0.00
2017,5,18,86,48,0.00
2017,5,19,89,55,0.00
2017,5,20,93,57,0.00
2017,5,21,95,60,0.00
2017,5,22,98,62,0.00
2017,5,23,98,66,0.00
2017,5,24,91,68,0.00
2017,5,25,75,53,0.00
2017,5,26,75,55,0.00
2017,5,27,80,55,0.00
2017,5,28,89,60,0.00
2017,5,29,89,64,0.00
2017,5,30,80,62,0.00
2017,5,31,77,57,0.08
2017,6,1,84,62,0.00
2017,6,2,91,62,0.00
2017,6,3,89,66,0.00
2017,6,4,87,64,0.00
2017,6,5,89,60,0.00
2017,6,6,91,62,0.00
2017,6,7,84,64,0.00
2017,6,8,69,51,0.35
2017,6,9,77,57,0.00
2017,6,10,73,53,0.00
2017,6,11,68,55,0.00
2017,6,12,71,53,0.00
2017,6,13,82,57,0.00
2017,6,14,89,59,0.00
2017,6,15,91,64,0.00
2017,6,16,100,73,0.00
2017,6,17,100,73,0.00
2017,6,18,109,75,0.00
2017,6,19,104,77,0.00
2017,6,20,104,82,0.00
2017,6,21,109,77,0.00
2017,6,22,109,77,0.00
2017,6,23,102,77,0.00
2017,6,24,100,77,0.00
2017,6,25,95,75,0.00
2017,6,26,89,64,0.00
2017,6,27,89,62,0.00
2017,6,28,91,64,0.00
2017,6,29,95,68,0.00
2017,6,30,93,68,0.00
2017,7,1,91,66,0.00
2017,7,2,95,71,0.00
2017,7,3,93,68,0.00
2017,7,4,95,68,0.00
2017,7,5,95,66,0.00
2017,7,6,102,68,0.00
2017,7,7,107,69,0.00
2017,7,8,105,68,0.00
2017,7,9,102,73,0.00
2017,7,10,96,71,0.00
2017,7,11,95,71,0.00
2017,7,12,95,68,0.00
2017,7,13,95,68,0.00
2017,7,14,98,69,0.00
2017,7,15,100,71,0.00
2017,7,16,104,77,0.00
2017,7,17,100,73,0.00
2017,7,18,91,71,0.00
2017,7,19,93,64,0.00
2017,7,20,93,66,0.00
2017,7,21,96,69,0.00
2017,7,22,96,69,0.00
2017,7,23,100,71,0.00
2017,7,24,95,71,0.00
2017,7,25,93,66,0.00
2017,7,26,95,68,0.00
2017,7,27,100,71,0.00
2017,7,28,100,73,0.00
2017,7,29,98,71,0.00
2017,7,30,98,68,0.00
2017,7,31,98,73,0.00
2017,8,1,100,73,0.00
2017,8,2,102,77,0.00
2017,8,3,100,78,0.00
2017,8,4,95,77,0.00
2017,8,5,93,77,0.00
2017,8,6,91,69,0.00
2017,8,7,93,66,0.00
2017,8,8,93,68,0.00
2017,8,9,91,68,0.00
2017,8,10,91,66,0.00
2017,8,11,95,71,0.00
2017,8,12,96,73,0.00
2017,8,13,91,68,0.00
2017,8,14,84,66,0.00
2017,8,15,84,60,0.00
2017,8,16,86,64,0.00
2017,8,17,93,68,0.00
2017,8,18,93,71,0.00
2017,8,19,95,71,0.00
2017,8,20,91,66,0.00
2017,8,21,86,66,0.00
2017,8,22,91,68,0.00
2017,8,23,96,71,0.00
2017,8,24,95,68,0.00
2017,8,25,95,64,0.00
2017,8,26,104,62,0.00
2017,8,27,107,71,0.00
2017,8,28,107,68,0.00
2017,8,29,104,73,0.00
2017,8,30,96,69,0.00
2017,8,31,100,66,0.00
2017,9,1,109,68,0.00
2017,9,2,107,71,0.00
2017,9,3,104,71,0.00
2017,9,4,98,77,0.00
2017,9,5,91,73,0.09
2017,9,6,93,73,0.00
2017,9,7,80,68,0.00
2017,9,8,87,62,0.00
2017,9,9,93,66,0.00
2017,9,10,102,64,0.00
2017,9,11,95,71,0.00
2017,9,12,93,77,0.00
2017,9,13,86,68,0.00
2017,9,14,75,62,0.00
2017,9,15,86,59,0.00
2017,9,16,84,57,0.00
2017,9,17,84,57,0.00
2017,9,18,80,62,0.00
2017,9,19,77,55,0.00
2017,9,20,73,60,0.00
2017,9,21,73,50,0.00
2017,9,22,73,55,0.00
2017,9,23,78,50,0.00
2017,9,24,82,50,0.00
2017,9,25,86,51,0.00
2017,9,26,91,59,0.00
2017,9,27,91,57,0.00
2017,9,28,89,55,0.00
2017,9,29,82,59,0.00
2017,9,30,84,59,0.00
2017,10,1,80,59,0.00
2017,10,2,77,51,0.00
2017,10,3,78,50,0.00
2017,10,4,77,50,0.00
2017,10,5,82,46,0.00
2017,10,6,89,50,0.00
2017,10,7,84,50,0.00
2017,10,8,80,57,0.00
2017,10,9,80,48,0.00
2017,10,10,78,48,0.00
2017,10,11,73,55,0.00
2017,10,12,75,48,0.00
2017,10,13,78,46,0.00
2017,10,14,80,50,0.00
2017,10,15,80,46,0.00
2017,10,16,82,46,0.00
2017,10,17,80,44,0.00
2017,10,18,78,46,0.00
2017,10,19,71,53,0.25
2017,10,20,62,46,0.07
2017,10,21,68,41,0.00
2017,10,22,75,42,0.00
2017,10,23,91,62,0.00
2017,10,24,93,57,0.00
2017,10,25,86,53,0.00
2017,10,26,86,53,0.00
2017,10,27,82,51,0.00
2017,10,28,82,53,0.00
2017,10,29,82,50,0.00
2017,10,30,69,55,0.00
2017,10,31,68,48,0.00
2017,11,1,66,44,0.00
2017,11,2,64,48,0.00
2017,11,3,59,55,0.21
2017,11,4,57,50,0.19
2017,11,5,57,44,0.00
2017,11,6,59,42,0.00
2017,11,7,62,35,0.00
2017,11,8,57,42,0.80
2017,11,9,64,55,0.00
2017,11,10,62,55,0.00
2017,11,11,60,46,0.00
2017,11,12,57,44,0.00
2017,11,13,59,55,0.02
2017,11,14,60,44,0.00
2017,11,15,57,48,0.05
2017,11,16,59,53,0.01
2017,11,17,59,39,0.04
2017,11,18,59,35,0.00
2017,11,19,55,35,0.00
2017,11,20,55,50,0.00
2017,11,21,64,50,0.00
2017,11,22,68,46,0.00
2017,11,23,64,53,0.00
2017,11,24,62,50,0.00
2017,11,25,64,51,0.00
2017,11,26,64,53,0.00
2017,11,27,57,41,0.00
2017,11,28,57,39,0.00
2017,11,29,64,44,0.00
2017,11,30,57,39,0.00
2017,12,1,57,39,0.00
2017,12,2,55,37,0.00
2017,12,3,55,37,0.00
2017,12,4,57,35,0.00
2017,12,5,64,32,0.00
2017,12,6,66,35,0.00
2017,12,7,66,37,0.00
2017,12,8,59,35,0.00
2017,12,9,60,35,0.00
2017,12,10,62,33,0.00
2017,12,11,62,32,0.00
2017,12,12,59,32,0.00
2017,12,13,59,30,0.00
2017,12,14,59,35,0.00
2017,12,15,55,35,0.00
2017,12,16,59,44,0.00
2017,12,17,64,39,0.00
2017,12,18,59,35,0.00
2017,12,19,55,35,0.00
2017,12,20,53,35,0.09
2017,12,21,53,30,0.00
2017,12,22,46,37,0.00
2017,12,23,53,37,0.00
2017,12,24,50,39,0.00
2017,12,25,55,32,0.00
2017,12,26,57,35,0.00
2017,12,27,57,32,0.00
2017,12,28,57,33,0.00
2017,12,29,59,33,0.00
2017,12,30,59,35,0.00
2017,12,31,57,37,0.00
2018,1,1,64,41,0.00
2018,1,2,59,44,0.00
2018,1,3,55,42,0.00
2018,1,4,60,50,0.02
2018,1,5,59,55,0.00
2018,1,6,57,44,0.00
2018,1,7,55,35,0.00
2018,1,8,53,46,0.84
2018,1,9,59,50,0.29
2018,1,10,55,46,0.00
2018,1,11,57,42,0.00
2018,1,12,62,44,0.00
2018,1,13,53,41,0.00
2018,1,14,46,37,0.00
2018,1,15,53,41,0.07
2018,1,16,59,46,0.09
2018,1,17,53,46,0.00
2018,1,18,53,48,0.08
2018,1,19,55,37,0.00
2018,1,20,55,32,0.00
2018,1,21,50,35,0.20
2018,1,22,50,42,0.02
2018,1,23,53,33,0.00
2018,1,24,51,44,0.00
2018,1,25,50,42,0.00
2018,1,26,50,35,0.00
2018,1,27,55,41,0.00
2018,1,28,60,37,0.00
2018,1,29,57,41,0.00
2018,1,30,64,39,0.00
2018,1,31,59,35,0.00
2018,2,1,69,44,0.00
2018,2,2,75,46,0.00
2018,2,3,78,51,0.00
2018,2,4,71,48,0.00
2018,2,5,77,44,0.00
2018,2,6,71,39,0.00
2018,2,7,73,44,0.00
2018,2,8,73,44,0.00
2018,2,9,73,41,0.00
2018,2,10,62,39,0.00
2018,2,11,57,33,0.00
2018,2,12,59,37,0.00
2018,2,13,62,32,0.00
2018,2,14,62,32,0.00
2018,2,15,60,35,0.00
2018,2,16,64,37,0.00
2018,2,17,66,41,0.00
2018,2,18,57,35,0.00
2018,2,19,50,30,0.00
2018,2,20,46,26,0.00
2018,2,21,53,28,0.00
2018,2,22,42,37,0.00
